; Engine configuration file.
; It's best edited using the editor UI and not directly,
; since the parameters that go here are not all obvious.
;
; Format:
;   [section] ; section goes between []
;   param=value ; assign values to parameters

config_version=5

[application]

config/name=" ludumdare55"
config/description="None"
config/version="0.0.0"
run/main_scene="res://ld_55.tscn"
config/features=PackedStringArray("4.2")

[autoload]

Logger="*res://addons/gs_logger/logger.gd"
Game="*res://addons/gs_game/game.gd"
ECS="*res://addons/gs_ecs/ecs.gd"
WindowManager="*res://addons/gs_window_manager/window_manager.tscn"
SceneManager="*res://addons/gs_scene_manager/scene_manager.tscn"
LudumDare="*res://addons/gs_ludumdare/ludum_dare.tscn"
Global="*res://global.tscn"

[display]

window/size/viewport_width=960
window/size/viewport_height=540
window/size/resizable=false
window/stretch/mode="viewport"

[editor_plugins]

enabled=PackedStringArray("res://addons/gs_ecs/plugin.cfg", "res://addons/gs_logger/plugin.cfg", "res://addons/gs_game/plugin.cfg", "res://addons/gs_scene_manager/plugin.cfg", "res://addons/gs_window_manager/plugin.cfg")

[filesystem]

import/blender/enabled=false

[importer_defaults]

texture={
"compress/channel_pack": 0,
"compress/hdr_compression": 1,
"compress/high_quality": false,
"compress/lossy_quality": 0.7,
"compress/mode": 0,
"compress/normal_map": 0,
"detect_3d/compress_to": 0,
"mipmaps/generate": false,
"mipmaps/limit": -1,
"process/fix_alpha_border": true,
"process/hdr_as_srgb": false,
"process/hdr_clamp_exposure": false,
"process/normal_map_invert_y": false,
"process/premult_alpha": false,
"process/size_limit": 0,
"roughness/mode": 0,
"roughness/src_normal": ""
}

[input]

game_up={
"deadzone": 0.5,
"events": [Object(InputEventKey,"resource_local_to_scene":false,"resource_name":"","device":-1,"window_id":0,"alt_pressed":false,"shift_pressed":false,"ctrl_pressed":false,"meta_pressed":false,"pressed":false,"keycode":0,"physical_keycode":4194320,"key_label":0,"unicode":0,"echo":false,"script":null)
]
}
game_down={
"deadzone": 0.5,
"events": [Object(InputEventKey,"resource_local_to_scene":false,"resource_name":"","device":-1,"window_id":0,"alt_pressed":false,"shift_pressed":false,"ctrl_pressed":false,"meta_pressed":false,"pressed":false,"keycode":0,"physical_keycode":4194322,"key_label":0,"unicode":0,"echo":false,"script":null)
]
}
game_gas={
"deadzone": 0.5,
"events": [Object(InputEventKey,"resource_local_to_scene":false,"resource_name":"","device":-1,"window_id":0,"alt_pressed":false,"shift_pressed":false,"ctrl_pressed":false,"meta_pressed":false,"pressed":false,"keycode":0,"physical_keycode":88,"key_label":0,"unicode":120,"echo":false,"script":null)
, Object(InputEventKey,"resource_local_to_scene":false,"resource_name":"","device":-1,"window_id":0,"alt_pressed":false,"shift_pressed":false,"ctrl_pressed":false,"meta_pressed":false,"pressed":false,"keycode":0,"physical_keycode":4194321,"key_label":0,"unicode":0,"echo":false,"script":null)
]
}
game_break={
"deadzone": 0.5,
"events": [Object(InputEventKey,"resource_local_to_scene":false,"resource_name":"","device":-1,"window_id":0,"alt_pressed":false,"shift_pressed":false,"ctrl_pressed":false,"meta_pressed":false,"pressed":false,"keycode":0,"physical_keycode":90,"key_label":0,"unicode":122,"echo":false,"script":null)
, Object(InputEventKey,"resource_local_to_scene":false,"resource_name":"","device":-1,"window_id":0,"alt_pressed":false,"shift_pressed":false,"ctrl_pressed":false,"meta_pressed":false,"pressed":false,"keycode":0,"physical_keycode":4194319,"key_label":0,"unicode":0,"echo":false,"script":null)
]
}
game_accept={
"deadzone": 0.5,
"events": [Object(InputEventKey,"resource_local_to_scene":false,"resource_name":"","device":-1,"window_id":0,"alt_pressed":false,"shift_pressed":false,"ctrl_pressed":false,"meta_pressed":false,"pressed":false,"keycode":0,"physical_keycode":4194309,"key_label":0,"unicode":0,"echo":false,"script":null)
]
}
game_cancel={
"deadzone": 0.5,
"events": [Object(InputEventKey,"resource_local_to_scene":false,"resource_name":"","device":-1,"window_id":0,"alt_pressed":false,"shift_pressed":false,"ctrl_pressed":false,"meta_pressed":false,"pressed":false,"keycode":0,"physical_keycode":4194305,"key_label":0,"unicode":0,"echo":false,"script":null)
, Object(InputEventMouseButton,"resource_local_to_scene":false,"resource_name":"","device":-1,"window_id":0,"alt_pressed":false,"shift_pressed":false,"ctrl_pressed":false,"meta_pressed":false,"button_mask":0,"position":Vector2(0, 0),"global_position":Vector2(0, 0),"factor":1.0,"button_index":2,"canceled":false,"pressed":false,"double_click":false,"script":null)
]
}
game_button={
"deadzone": 0.5,
"events": [Object(InputEventMouseButton,"resource_local_to_scene":false,"resource_name":"","device":-1,"window_id":0,"alt_pressed":false,"shift_pressed":false,"ctrl_pressed":false,"meta_pressed":false,"button_mask":0,"position":Vector2(0, 0),"global_position":Vector2(0, 0),"factor":1.0,"button_index":1,"canceled":false,"pressed":false,"double_click":false,"script":null)
]
}
game_debug={
"deadzone": 0.5,
"events": [Object(InputEventKey,"resource_local_to_scene":false,"resource_name":"","device":-1,"window_id":0,"alt_pressed":false,"shift_pressed":false,"ctrl_pressed":false,"meta_pressed":false,"pressed":false,"keycode":0,"physical_keycode":96,"key_label":0,"unicode":96,"echo":false,"script":null)
]
}

[layer_names]

2d_physics/layer_1="Player"
2d_physics/layer_2="Other"
2d_physics/layer_3="Street"
2d_physics/layer_4="Police"
2d_physics/layer_5="Boundary"

[logger]

level="DEBUG"

[rendering]

textures/canvas_textures/default_texture_filter=0
2d/snap/snap_2d_transforms_to_pixel=true
2d/snap/snap_2d_vertices_to_pixel=true
