[gd_scene load_steps=2 format=3 uid="uid://b1rjcl500icfe"]

[ext_resource type="Script" path="res://game/ecs/systems/move_system.gd" id="1_aopy7"]

[node name="MoveSystem" type="Node"]
script = ExtResource("1_aopy7")
COMPONENTS = "movecomponent, directioncomponent"
