[gd_scene load_steps=5 format=3 uid="uid://35i1vgeieex0"]

[ext_resource type="PackedScene" uid="uid://bxo6ap3b75pfw" path="res://game_work/move_system_work.tscn" id="1_5halq"]
[ext_resource type="Script" path="res://game_work/camera_work.gd" id="1_ktjhn"]
[ext_resource type="PackedScene" uid="uid://0u7e28yvv1go" path="res://game/ecs/entities/camera_entity.tscn" id="2_u7kav"]
[ext_resource type="PackedScene" uid="uid://c8cpwps8wfimk" path="res://game/ecs/systems/camera_system.tscn" id="4_x3qm0"]

[node name="CameraWork" type="Node2D"]
script = ExtResource("1_ktjhn")

[node name="MoveSystemWork" parent="." instance=ExtResource("1_5halq")]

[node name="CameraEntity" parent="." instance=ExtResource("2_u7kav")]

[node name="CameraSystem" parent="." instance=ExtResource("4_x3qm0")]
