[gd_scene load_steps=2 format=3 uid="uid://cs6x3wj0bl4ln"]

[ext_resource type="TileSet" uid="uid://drrotkcduko3s" path="res://game/resources/city_tiles.tres" id="1_d8bri"]

[node name="TilesWork" type="Node2D"]

[node name="TileMap" type="TileMap" parent="."]
tile_set = ExtResource("1_d8bri")
format = 2
layer_0/name = "BUILDING"
layer_0/tile_data = PackedInt32Array(-327677, 0, 3, -262141, 0, 5, -196605, 1048576, 0, -131069, 1048576, 2, -65533, 1048576, 3, -327676, 65536, 3, -262140, 65536, 5, -196604, 1179648, 0, -131068, 1179648, 1, -65532, 1376256, 2, -327675, 65536, 3, -262139, 65536, 5, -196603, 1179648, 0, -131067, 1179648, 1, -65531, 1376256, 2, -327674, 65536, 3, -262138, 65536, 5, -196602, 1179648, 0, -131066, 1179648, 1, -65530, 1179648, 2, -327673, 131072, 3, -262137, 131072, 5, -196601, 1048576, 0, -131065, 1048576, 2, -65529, 1048576, 3)
layer_1/name = "DECOR"
layer_1/tile_data = PackedInt32Array(-131069, 720896, 12, -65533, 720896, 12, -196604, 720896, 13, -65532, 786432, 9, -196603, 720896, 13, -65531, 983040, 10, -327674, 589824, 12, -196602, 720896, 13, -65530, 786432, 9, -131065, 720896, 12, -65529, 720896, 12)
