[gd_scene load_steps=2 format=3 uid="uid://div72q2tslirs"]

[ext_resource type="TileSet" uid="uid://drrotkcduko3s" path="res://game/resources/city_tiles.tres" id="1_ddrg4"]

[node name="BuildingB" type="Node2D"]

[node name="TileMap" type="TileMap" parent="."]
tile_set = ExtResource("1_ddrg4")
format = 2
layer_0/name = "BUILDING"
layer_0/tile_data = PackedInt32Array(-65534, 589824, 14, -65533, 655360, 14, -65532, 524288, 14, -65531, 983040, 10, -65530, 655360, 14, -65529, 524288, 14, -65528, 589824, 14, -65527, 655360, 14, -65535, 524288, 14, -131071, 1114112, 4, -131070, 1245184, 4, -196605, 1376256, 6, -131069, 1376256, 6, -196604, 1376256, 6, -131068, 1179648, 6, -196603, 1179648, 6, -131067, 1179648, 6, -196602, 1179648, 6, -131066, 1179648, 6, -196601, 1376256, 6, -131065, 1376256, 6, -131064, 1114112, 4, -131063, 1245184, 4, -196600, 0, 5, -196599, 131072, 5, -196607, 0, 5, -196606, 131072, 5, -262143, 0, 4, -262142, 131072, 4, -262141, 1179648, 4, -262140, 1179648, 4, -262139, 1179648, 4, -262138, 1179648, 4, -262137, 1179648, 4, -262136, 0, 4, -262135, 131072, 4, -458751, 0, 3, -393215, 0, 4, -327679, 0, 4, -458750, 65536, 3, -393214, 65536, 4, -327678, 327680, 3, -458749, 65536, 3, -393213, 65536, 4, -327677, 65536, 5, -458748, 65536, 3, -393212, 65536, 4, -327676, 65536, 5, -458747, 65536, 3, -393211, 65536, 4, -327675, 65536, 5, -458746, 65536, 3, -393210, 65536, 4, -327674, 65536, 5, -458745, 65536, 3, -393209, 65536, 4, -327673, 65536, 5, -458744, 65536, 3, -393208, 65536, 4, -327672, 393216, 3, -458743, 131072, 3, -393207, 131072, 4, -327671, 131072, 4)
layer_1/name = "DECOR"
layer_1/tile_data = PackedInt32Array(-65535, 262144, 12, -65534, 327680, 12, -65533, 327680, 12, -65532, 393216, 12, -65531, 524288, 12, -65530, 262144, 12, -65529, 327680, 12, -65528, 327680, 12, -65527, 393216, 12, -131067, 917504, 16, -196603, 786432, 15)
