[gd_scene load_steps=2 format=3 uid="uid://dm8ab1tqgix8q"]

[ext_resource type="Script" path="res://game/ecs/components/input_component.gd" id="1_pjuj2"]

[node name="InputComponent" type="Node"]
script = ExtResource("1_pjuj2")
